{
  "features": [
    {
      "type": "Feature",
      "properties": {
        "name": "Harvey",
        "shortname": "harvey"
      },
      "geometry": {
        "coordinates": [
          -80.412867,
          37.228402
        ],
        "type": "Point"
      },
      "id": "0ae07e7b78338f4f6fb5cff0f08538f4"
    },
    {
      "type": "Feature",
      "properties": {
        "name": "Nick",
        "shortname": "nick"
      },
      "geometry": {
        "coordinates": [
          -80.415722,
          37.23033
        ],
        "type": "Point"
      },
      "id": "132dacf8d86c4333bf71335a5131068a"
    },
    {
      "type": "Feature",
      "properties": {
        "name": "Nannie Bell",
        "shortname": "nanniebell"
      },
      "geometry": {
        "coordinates": [
          -80.413886,
          37.231401
        ],
        "type": "Point"
      },
      "id": "193b8b6c514fca470ed5fafe65921a0e"
    },
    {
      "type": "Feature",
      "properties": {
        "name": "E.D. Frog",
        "shortname": "edfrog"
      },
      "geometry": {
        "coordinates": [
          -80.406112,
          37.213597
        ],
        "type": "Point"
      },
      "id": "23b18b40a9514cbf4dbf0770fe6ed10c"
    },
    {
      "type": "Feature",
      "properties": {
        "name": "Mary Louise",
        "shortname": "marylouise"
      },
      "geometry": {
        "coordinates": [
          -80.413949,
          37.227719
        ],
        "type": "Point"
      },
      "id": "260a0dd0ca8b9e99604a3a1daf81edb0"
    },
    {
      "type": "Feature",
      "properties": {
        "name": "Crawford",
        "shortname": "crawford"
      },
      "geometry": {
        "coordinates": [
          -80.42376,
          37.233889
        ],
        "type": "Point"
      },
      "id": "266b0bc45242b4fc67576fa37f50ccf9"
    },
    {
      "type": "Feature",
      "properties": {
        "name": "Gilbert Vaughn",
        "shortname": "gilbertvaughn"
      },
      "geometry": {
        "coordinates": [
          -80.420987,
          37.234339
        ],
        "type": "Point"
      },
      "id": "28003d33d42c70105ec2118e8249e90d"
    },
    {
      "type": "Feature",
      "properties": {
        "name": "Lindsay",
        "shortname": "lindsay"
      },
      "geometry": {
        "coordinates": [
          -80.411279,
          37.237004
        ],
        "type": "Point"
      },
      "id": "2ce3a8404ed9ab8d9c2a1615f0324cca"
    },
    {
      "type": "Feature",
      "properties": {
        "name": "Millie",
        "shortname": "millie"
      },
      "geometry": {
        "coordinates": [
          -80.415916,
          37.229619
        ],
        "type": "Point"
      },
      "id": "4a05431831aac077901c30eb7d3d0c99"
    },
    {
      "type": "Feature",
      "properties": {
        "name": "Virginia",
        "shortname": "virginia"
      },
      "geometry": {
        "coordinates": [
          -80.410918,
          37.230509
        ],
        "type": "Point"
      },
      "id": "67b2252ab82f1ac1970a65d7bb1a95b5"
    },
    {
      "type": "Feature",
      "properties": {
        "name": "Harriet",
        "shortname": "harriet"
      },
      "geometry": {
        "coordinates": [
          -80.41122,
          37.228826
        ],
        "type": "Point"
      },
      "id": "6a7d4978e30b115dfbe84a71f83b1436"
    },
    {
      "type": "Feature",
      "properties": {
        "name": "A.G.",
        "shortname": "ag"
      },
      "geometry": {
        "coordinates": [
          -80.413178,
          37.227325
        ],
        "type": "Point"
      },
      "id": "87b672a2dfc55cd06ff7dc6c63a33f1f"
    },
    {
      "type": "Feature",
      "properties": {
        "name": "Keister",
        "shortname": "keister"
      },
      "geometry": {
        "coordinates": [
          -80.420533,
          37.237793
        ],
        "type": "Point"
      },
      "id": "9a34b45e18420a7ca57ec38a27b7b7f9"
    },
    {
      "type": "Feature",
      "properties": {
        "name": "Phillip",
        "shortname": "phillip"
      },
      "geometry": {
        "coordinates": [
          -80.409353,
          37.229031
        ],
        "type": "Point"
      },
      "id": "a0c832b21ee17860954d1c4997f90b8b"
    },
    {
      "type": "Feature",
      "properties": {
        "name": "Lyle",
        "shortname": "lyle"
      },
      "geometry": {
        "coordinates": [
          -80.417955,
          37.23157
        ],
        "type": "Point"
      },
      "id": "dce00969cea3ce7317cbe380258c8da6"
    },
    {
      "type": "Feature",
      "properties": {
        "name": "Bogen",
        "shortname": "bogen"
      },
      "geometry": {
        "coordinates": [
          -80.411903,
          37.218925
        ],
        "type": "Point"
      },
      "id": "e94d41ef02c3d7bc483251e5303c49e1"
    }
  ],
  "type": "FeatureCollection"
}